\relax 
\providecommand\hyper@newdestlabel[2]{}
\providecommand*\new@tpo@label[2]{}
\providecommand\HyperFirstAtBeginDocument{\AtBeginDocument}
\HyperFirstAtBeginDocument{\ifx\hyper@anchor\@undefined
\global\let\oldcontentsline\contentsline
\gdef\contentsline#1#2#3#4{\oldcontentsline{#1}{#2}{#3}}
\global\let\oldnewlabel\newlabel
\gdef\newlabel#1#2{\newlabelxx{#1}#2}
\gdef\newlabelxx#1#2#3#4#5#6{\oldnewlabel{#1}{{#2}{#3}}}
\AtEndDocument{\ifx\hyper@anchor\@undefined
\let\contentsline\oldcontentsline
\let\newlabel\oldnewlabel
\fi}
\fi}
\global\let\hyper@last\relax 
\gdef\HyperFirstAtBeginDocument#1{#1}
\providecommand\HyField@AuxAddToFields[1]{}
\providecommand\HyField@AuxAddToCoFields[2]{}
\providecommand\@newglossary[4]{}
\@newglossary{main}{glg}{gls}{glo}
\@writefile{lof}{\deactivateaddvspace  }
\@writefile{lot}{\deactivateaddvspace  }
\@writefile{toc}{\contentsline {section}{\numberline {1}{Introduction}}{2}{section.1}}
\newlabel{Introduction}{{1}{2}{Introduction}{section.1}{}}
\@writefile{toc}{\contentsline {section}{\numberline {2}{Basic Structure of a CNN}}{2}{section.2}}
\newlabel{Basic Structure of a CNN}{{2}{2}{Basic Structure of a CNN}{section.2}{}}
\@writefile{toc}{\contentsline {subsubsection}{\numberline {2.0.1}{Convolution layers}}{3}{subsubsection.2.0.1}}
\newlabel{Convolution layers}{{2.0.1}{3}{Convolution layers}{subsubsection.2.0.1}{}}
\@writefile{lof}{\contentsline {figure}{\numberline {1}{\ignorespaces Multiplication in a convolutional layer}}{3}{figure.caption.1}}
\providecommand*\caption@xref[2]{\@setref\relax\@undefined{#1}}
\newlabel{fig:Convo}{{1}{3}{Multiplication in a convolutional layer}{figure.caption.1}{}}
\@writefile{toc}{\contentsline {section}{\numberline {3}{Ising Model}}{3}{section.3}}
\newlabel{Ising Model}{{3}{3}{Ising Model}{section.3}{}}
\newlabel{eqn:one}{{1}{3}{Ising Model}{equation.3.1}{}}
\newlabel{eqn:two}{{2}{4}{Ising Model}{equation.3.2}{}}
\newlabel{eqn:three}{{3}{4}{Ising Model}{equation.3.3}{}}
\newlabel{eqn:four}{{4}{4}{Ising Model}{equation.3.4}{}}
\@writefile{toc}{\contentsline {subsection}{\numberline {3.1}{Sampling and Average}}{4}{subsection.3.1}}
\newlabel{Sampling and Average}{{3.1}{4}{Sampling and Average}{subsection.3.1}{}}
\newlabel{eqn:five}{{5}{4}{Sampling and Average}{equation.3.5}{}}
\newlabel{eqn:six}{{6}{4}{Sampling and Average}{equation.3.6}{}}
\newlabel{eqn:seven}{{7}{4}{Sampling and Average}{equation.3.7}{}}
\newlabel{eqn:eight}{{8}{4}{Sampling and Average}{equation.3.8}{}}
\newlabel{eqn:nine}{{9}{5}{Sampling and Average}{equation.3.9}{}}
\newlabel{eqn:ten}{{10}{5}{Sampling and Average}{equation.3.10}{}}
\newlabel{eqn:eleven}{{11}{5}{Sampling and Average}{equation.3.11}{}}
\newlabel{eqn:twelve}{{12}{5}{Sampling and Average}{equation.3.12}{}}
\newlabel{eqn:thirteen}{{13}{5}{Sampling and Average}{equation.3.13}{}}
\newlabel{eqn:fourteen}{{14}{5}{Sampling and Average}{equation.3.14}{}}
\@writefile{toc}{\contentsline {subsection}{\numberline {3.2}{Calculation of Observables}}{6}{subsection.3.2}}
\newlabel{Calculation of Observables}{{3.2}{6}{Calculation of Observables}{subsection.3.2}{}}
\newlabel{eqn:fifteen}{{15}{6}{Calculation of Observables}{equation.3.15}{}}
\newlabel{eqn:sixteen}{{16}{6}{Calculation of Observables}{equation.3.16}{}}
\newlabel{eqn:seventeen}{{17}{6}{Calculation of Observables}{equation.3.17}{}}
\newlabel{eqn:eighteen}{{18}{6}{Calculation of Observables}{equation.3.18}{}}
\@writefile{toc}{\contentsline {section}{\numberline {4}{Sampling in Monto-Carlo Metropolis method for 2D Ising model}}{6}{section.4}}
\newlabel{Sampling in Monto-Carlo Metropolis method for 2D Ising model}{{4}{6}{Sampling in Monto-Carlo Metropolis method for 2D Ising model}{section.4}{}}
\@writefile{toc}{\contentsline {subsection}{\numberline {4.1}{Metropolis Method}}{6}{subsection.4.1}}
\newlabel{Metropolis Method}{{4.1}{6}{Metropolis Method}{subsection.4.1}{}}
\@writefile{toc}{\contentsline {subsection}{\numberline {4.2}{Sampling of data}}{7}{subsection.4.2}}
\newlabel{Sampling of data}{{4.2}{7}{Sampling of data}{subsection.4.2}{}}
\@writefile{lof}{\contentsline {figure}{\numberline {2}{\ignorespaces Initial lattice structure generated for sampling}}{7}{figure.caption.2}}
\newlabel{fig:Init_lattice}{{2}{7}{Initial lattice structure generated for sampling}{figure.caption.2}{}}
\@writefile{lof}{\contentsline {figure}{\numberline {3}{\ignorespaces Process of spin flip in a lattice}}{7}{figure.caption.3}}
\newlabel{fig:Flip}{{3}{7}{Process of spin flip in a lattice}{figure.caption.3}{}}
\@writefile{lof}{\contentsline {figure}{\numberline {4}{\ignorespaces Energy change due to flipping}}{8}{figure.caption.4}}
\newlabel{fig:E_change}{{4}{8}{Energy change due to flipping}{figure.caption.4}{}}
\@writefile{lof}{\contentsline {figure}{\numberline {5}{\ignorespaces Generated data from Metropolis algorithm }}{8}{figure.caption.5}}
\newlabel{fig:Metro}{{5}{8}{Generated data from Metropolis algorithm}{figure.caption.5}{}}
\@writefile{toc}{\contentsline {subsection}{\numberline {4.3}{Calculation of observables for sampled data}}{9}{subsection.4.3}}
\newlabel{Calculation of observables for sampled data}{{4.3}{9}{Calculation of observables for sampled data}{subsection.4.3}{}}
\@writefile{lof}{\contentsline {figure}{\numberline {6}{\ignorespaces Plots confirming a good data samples}}{9}{figure.caption.6}}
\newlabel{fig:observe}{{6}{9}{Plots confirming a good data samples}{figure.caption.6}{}}
\@writefile{toc}{\contentsline {section}{\numberline {5}{model description}}{10}{section.5}}
\@writefile{lof}{\contentsline {figure}{\numberline {7}{\ignorespaces CNN model for training}}{10}{figure.caption.7}}
\newlabel{fig:Cnn}{{7}{10}{CNN model for training}{figure.caption.7}{}}
\@writefile{lot}{\contentsline {table}{\numberline {1}{\ignorespaces Model description and parameter count for a CNN Architecture\relax }}{10}{table.caption.8}}
\newlabel{tab:Tab_CNN}{{1}{10}{Model description and parameter count for a CNN Architecture\relax }{table.caption.8}{}}
\@writefile{toc}{\contentsline {section}{\numberline {6}{Glossary}}{10}{section.6}}
\@writefile{lof}{\contentsline {figure}{\numberline {8}{\ignorespaces Sigmoid Activation Function}}{12}{figure.caption.9}}
\newlabel{fig:Sigmo}{{8}{12}{Sigmoid Activation Function}{figure.caption.9}{}}
\@writefile{lof}{\contentsline {figure}{\numberline {9}{\ignorespaces Tanh Activation Function}}{12}{figure.caption.10}}
\newlabel{fig:tanh}{{9}{12}{Tanh Activation Function}{figure.caption.10}{}}
\bibstyle{unsrt}
\bibdata{ising.bib}
\@writefile{lof}{\contentsline {figure}{\numberline {10}{\ignorespaces ReLU Activation Function}}{13}{figure.caption.11}}
\newlabel{fig:relu}{{10}{13}{ReLU Activation Function}{figure.caption.11}{}}
